<svg xmlns="http://www.w3.org/2000/svg" xmlns:xlink="http://www.w3.org/1999/xlink" width="1280" height="245.677" viewBox="0 0 1280 245.677">
  <defs>
    <clipPath id="clip-path">
      <path id="Path_43" data-name="Path 43" d="M670,632.1l-1280-.108V386.425H670Z" transform="translate(610.004 -386.425)" fill="none"/>
    </clipPath>
  </defs>
  <g id="Group_33" data-name="Group 33" transform="translate(610.004 -386.425)" opacity="0.02">
    <g id="Group_32" data-name="Group 32" transform="translate(-610.004 386.425)" clip-path="url(#clip-path)">
      <path id="Path_22" data-name="Path 22" d="M-229.656,432.615l-3.577-4.51,1.488-1.5,2.174,2.192-.336.339.668.673,15.145-15.264-.665-.673-.342.344-2.174-2.192.339-.344-1.338-1.343-.339.344-2.171-2.192.336-.342-.665-.678-15.148,15.261.668.676.339-.342,2.174,2.19-1.338,1.351-3.025-3.819-3.028,3.819-1.335-1.351,2.179-2.19.334.342.668-.676-15.148-15.261-.668.678.339.342-2.171,2.189-.336-.342-1.343,1.343.339.344-2.171,2.192-.342-.344-.668.673,15.148,15.264.665-.673-.336-.339,2.176-2.192,1.485,1.5-3.569,4.51-.421-.421L-260.8,447.453l.668.676.342-.342,2.171,2.192-.339.339,1.343,1.348.336-.347,2.171,2.19-.339.347.668.673,4.876-4.91c-1.519,8.051-3.167,16.757-3.167,16.757l7.8,1.278h13.634l7.807-1.278s-1.645-8.705-3.17-16.757l4.878,4.91.665-.673-.336-.347,2.171-2.19.339.347,1.338-1.348-.339-.339,2.174-2.192.342.342.665-.676-15.145-15.258Z" transform="translate(1178.69 -352.148)" fill="#2e2421"/>
      <g id="Group_27" data-name="Group 27" transform="translate(255.506 31.941)">
        <path id="Path_23" data-name="Path 23" d="M-512.8,428.805a8.5,8.5,0,0,0,8.674,8.338,7.053,7.053,0,0,0,1.028-.082,13.859,13.859,0,0,0,12.8,8.393,15.464,15.464,0,0,0,2.855-.245c-.421,5.5-1.267,15.014-2.313,17.477l-.018.047c4.14.11,8.256.226,12.393.355-4.051-4.487-4.174-16.394-4.085-20.473.35-.263.683-.539,1.012-.836a14.471,14.471,0,0,0,5.722,1.246c7.678.089,13.973-5.675,14.078-12.859a12.514,12.514,0,0,0-3.07-8.322,9.073,9.073,0,0,0,3.835-7.207c.066-5.123-4.313-9.321-9.77-9.381a10.136,10.136,0,0,0-3.012.407,8.97,8.97,0,0,0-8.869-7.087,9.491,9.491,0,0,0-5.725,1.811,8.22,8.22,0,0,0-3.706-.941,7.808,7.808,0,0,0-8.03,6.816,11.751,11.751,0,0,0-9.363,11.082,10.687,10.687,0,0,0,.744,4.085A8.2,8.2,0,0,0-512.8,428.805Z" transform="translate(512.798 -398.577)" fill="#2e2421"/>
        <path id="Path_24" data-name="Path 24" d="M-474.729,417.428a6.47,6.47,0,0,0,1.659-4.2,6.966,6.966,0,0,0-6.666-6.829,7.023,7.023,0,0,0-6.95-5.515,7.475,7.475,0,0,0-2.944.56,6.426,6.426,0,0,1,.234,1.716,6.778,6.778,0,0,1-2.339,4.986,5.859,5.859,0,0,0-5.515-3.777,5.92,5.92,0,0,0-5.412,3.2,4.507,4.507,0,0,1,3.3,4.308,4.657,4.657,0,0,1-4.855,4.445,4.876,4.876,0,0,1-3.979-2.053,6.305,6.305,0,0,0-.079.715,5.743,5.743,0,0,0,5.846,5.617c.229,0,.452-.034.678-.055a7.141,7.141,0,0,1,.833,3.385,7.516,7.516,0,0,1-2.912,5.8,9.11,9.11,0,0,0,7.039,3.383,8.673,8.673,0,0,0,9.026-8.261,7.992,7.992,0,0,0-2.042-5.4,5.642,5.642,0,0,0,3.236-3.514,6.725,6.725,0,0,1,6.44,6.574,6.708,6.708,0,0,1-6.114,6.387,8.69,8.69,0,0,0,6.285,2.747,8.23,8.23,0,0,0,8.558-7.828A7.752,7.752,0,0,0-474.729,417.428Zm-7.013-1.716a4.514,4.514,0,0,1-3.4-1.582,6.856,6.856,0,0,0,5.517-6.237,4.124,4.124,0,0,1,2.368,3.712A4.312,4.312,0,0,1-481.742,415.712Z" transform="translate(520.166 -394.82)" fill="#fff"/>
      </g>
      <g id="Group_28" data-name="Group 28" transform="translate(89.819 4.229)">
        <path id="Path_25" data-name="Path 25" d="M-553.654,404.336a5.808,5.808,0,0,1,1.033.095c2.155-5.2,5.891-14.22,6.795-16.4h-15.653c.9,2.176,4.637,11.2,6.795,16.4A5.779,5.779,0,0,1-553.654,404.336Zm-9.449.6,2.14.888,1.207.5,1.28.531a6,6,0,0,1,1.464-1.464c-2.15-5.2-5.891-14.215-6.789-16.391-1.935,1.935-9.129,9.129-11.071,11.066l10.837,4.49C-563.724,404.683-563.413,404.812-563.1,404.938Zm9.449,1.914a3.369,3.369,0,0,0-3.367,3.367,3.368,3.368,0,0,0,3.367,3.362,3.371,3.371,0,0,0,3.367-3.362A3.372,3.372,0,0,0-553.654,406.851Zm4.818.008,16.4-6.792L-543.505,389l-6.789,16.391A6.042,6.042,0,0,1-548.836,406.859Zm.965,2.321a5.833,5.833,0,0,1,.1,1.038,5.894,5.894,0,0,1-.1,1.033c5.2,2.15,14.22,5.888,16.4,6.789V402.388C-533.651,403.292-542.672,407.028-547.871,409.18Zm-5.783,6.91a5.78,5.78,0,0,1-1.03-.092c-2.158,5.2-5.9,14.215-6.795,16.394h15.653c-.9-2.179-4.639-11.195-6.795-16.394A5.809,5.809,0,0,1-553.654,416.091Zm3.359-1.054,6.789,16.394,11.071-11.071-16.4-6.787A6.081,6.081,0,0,1-550.294,415.037Zm-6.718,0a6.054,6.054,0,0,1-1.464-1.464l-16.4,6.787c1.943,1.943,9.137,9.131,11.074,11.071l3.141-7.591C-559.4,420.8-558.033,417.494-557.013,415.037Zm-2.521-4.818a6.084,6.084,0,0,1,.092-1.038c-5.2-2.155-14.212-5.888-16.391-6.792v15.653c2.179-.9,11.195-4.639,16.391-6.789A6.146,6.146,0,0,1-559.534,410.219Z" transform="translate(575.833 -388.034)" fill="#2e2421"/>
        <path id="Path_26" data-name="Path 26" d="M-549.191,449.92h2.986v-3.58h-3.451L-552.831,422h3.015v-3.58h-3.478l-2.116-16.213h-3.609c.555,4.256,1.291,9.91,2.113,16.213h-4.547c.823-6.3,1.559-11.957,2.113-16.213h-3.606l-2.116,16.213h-3.48V422h3.012L-568.7,446.34h-3.449v3.58h2.981l-3.27,25.1,3.551.46s1.48-11.347,3.33-25.56H-552.8c1.856,14.212,3.333,25.56,3.333,25.56l3.548-.46Zm-15.9-3.58c1.033-7.93,2.147-16.489,3.17-24.337h5.48c1.025,7.849,2.137,16.407,3.173,24.337Z" transform="translate(581.359 -364.948)" fill="#2e2421"/>
      </g>
      <path id="Path_27" data-name="Path 27" d="M-426.208,453.107l-.457-9.134h-.026a5.221,5.221,0,0,0-.134-1.175c-.862-3.606-5.023-5.891-9.323-5.107-.152.029-.289.087-.436.124-2.148-3.559-6.895-5.6-11.8-4.718-.213.04-.407.121-.6.174-2.1-6.027-9.371-9.728-16.849-8.367a16.127,16.127,0,0,0-5.785,2.234,18.5,18.5,0,0,0-11.968-4.332,7.952,7.952,0,0,0-.105-2.634c-1.188-4.949-6.916-8.08-12.822-7a10.775,10.775,0,0,0-7.967,5.7,23.619,23.619,0,0,0-14.191-1.761,24.264,24.264,0,0,0-4.019,1.094c-4.9-6.779-14.543-10.532-24.429-8.737a26.01,26.01,0,0,0-8.256,2.97c-3.146-4.085-9.066-6.306-15.114-5.2-5.825,1.049-10.138,4.881-11.381,9.465a26.059,26.059,0,0,0-20.1-4.382c-10.85,1.969-18.4,9.978-18.673,18.9a13.357,13.357,0,0,0-1.737.152c-5.333.975-8.926,5.068-8.708,9.51l-.031,0,.447,9.026Q-526.634,448.323-426.208,453.107Z" transform="translate(575.607 -352.992)" fill="#2e2421"/>
      <path id="Path_28" data-name="Path 28" d="M-239.97,442.288a9.283,9.283,0,0,1,4.39.358,9.943,9.943,0,0,1,7.381-4.663,11.381,11.381,0,0,1,2.852-.008,7.418,7.418,0,0,1,6.138-4.371,7.921,7.921,0,0,1,7.862,3.675,12.864,12.864,0,0,1,3.856-1.033,13.544,13.544,0,0,1,4.09.2,12.585,12.585,0,0,1,10.2-6.571,13.721,13.721,0,0,1,10.427,3.3,14.589,14.589,0,0,1,6.76-2.287,14.866,14.866,0,0,1,10.249,2.891,10.345,10.345,0,0,1,9.139-6.427,11.51,11.51,0,0,1,7,1.7,15.14,15.14,0,0,1,9.791-4.324,15.357,15.357,0,0,1,12.935,5.312,15.751,15.751,0,0,1,6.545-1.85,16.43,16.43,0,0,1,3.859.229,9.354,9.354,0,0,1,8.314-5.622,10,10,0,0,1,8.133,3.275,12.786,12.786,0,0,1,9.831-5.165,13.522,13.522,0,0,1,8.582,2.439,16.165,16.165,0,0,1,9.878-3.874,15.949,15.949,0,0,1,13.892,6.45A15.845,15.845,0,0,1-54.5,425.4a16,16,0,0,1,6.779,1.167l-.042-.4c-.226-3.953,3.191-7.328,7.631-7.5,3.98-.16,7.412,2.279,8.225,5.646a13.958,13.958,0,0,1,3.832-.689,13.665,13.665,0,0,1,8.727,2.655,6.879,6.879,0,0,1-.394-1.966c-.208-4.206,3.443-7.749,8.156-7.92s8.677,3.1,8.869,7.3a7.038,7.038,0,0,1-.273,2.224,16.113,16.113,0,0,1,11.289-4.955,17.43,17.43,0,0,1,3.514.252,16.038,16.038,0,0,1,12.036-5.749c6.577-.2,12.317,3.294,14.759,8.369.555-4.55,4.786-8.161,10.062-8.3,5.709-.152,10.464,3.817,10.732,8.876l1.593-.134a14.423,14.423,0,0,1,6.124,1.175,16.8,16.8,0,0,1,13.121-6.453,19.155,19.155,0,0,1,2.029.079c.113-.145.247-.273.365-.418l.268,29.342a17.155,17.155,0,0,1-1.89.147,17.436,17.436,0,0,1-10.635-3.265,14.065,14.065,0,0,1-8.661,3.183,13.593,13.593,0,0,1-11.994-6.18,9.987,9.987,0,0,1-9.042,5.775,10.051,10.051,0,0,1-9.67-5.809,17.071,17.071,0,0,1-9.594,1.07,16,16,0,0,1-11.957,5.749,16.909,16.909,0,0,1-8.6-2.006,12.446,12.446,0,0,1-8.13,3.309,12.015,12.015,0,0,1-11.508-6.708,13.335,13.335,0,0,1-8.146,3.107,12.891,12.891,0,0,1-12.286-6.989c-.507,6.508-6.353,11.794-13.779,12.12a15.251,15.251,0,0,1-12.559-5.415,16.653,16.653,0,0,1-4.476.825,16.166,16.166,0,0,1-12.885-5.225,13.462,13.462,0,0,1-5.759,1.609l-.783.01c-.3,3.512-3.433,6.358-7.447,6.584a7.972,7.972,0,0,1-8.264-5.446c-1.509,5.338-6.661,9.415-13.079,9.815a15.321,15.321,0,0,1-12.78-5.354,15.669,15.669,0,0,1-6.469,1.874,15.368,15.368,0,0,1-12.851-5.281,6.4,6.4,0,0,1,.686,2.287c.352,3.711-2.692,6.968-6.8,7.276a7.7,7.7,0,0,1-7.568-4.108,14.088,14.088,0,0,1-9.247,4.416,14.568,14.568,0,0,1-11.931-4.492,13.37,13.37,0,0,1-5.149,1.561,14.149,14.149,0,0,1-5.1-.452,11.865,11.865,0,0,1-9,5.528c-5.746.61-11.079-2.6-12.869-7.449a9.681,9.681,0,0,1-7.765,5.583,10.868,10.868,0,0,1-6.8-1.322,8.361,8.361,0,0,1-5,2.692c-4.413.673-8.727-1.95-9.744-6C-247.639,446.982-244.635,442.995-239.97,442.288Z" transform="translate(1201.446 -339.161)" fill="#2e2421"/>
      <g id="Group_29" data-name="Group 29" transform="translate(201.454 103.392)">
        <path id="Path_29" data-name="Path 29" d="M561.682,425.8c-404.035-1.7-797.137,51.574-1095.044,143.306H561.682Z" transform="translate(533.362 -425.76)" fill="#fff"/>
      </g>
      <path id="Path_30" data-name="Path 30" d="M587.99,424.191c-419.54-3.919-831.644,51.4-1137.507,147.787h42.464C-209.147,480.246,183.956,426.972,587.99,428.672Z" transform="translate(708.507 -325.241)" fill="#2e2421"/>
      <path id="Path_31" data-name="Path 31" d="M97.849,541.249l4.581,10.217A1400.453,1400.453,0,0,1,330.461,477v-5.407c-3.17.662-6.343,1.319-9.513,2C245.056,490.24,170.277,511.7,97.849,541.249Zm-81.51-6,4.169,9.941c78.466-31.684,160.954-54.812,244.1-72.578q32.788-6.892,65.854-12.462v-4.016q-33.561,4.917-66.908,11.189C179.64,483.448,96.742,504.744,16.339,535.253Zm-81.518-5.99,3.78,9.657c86.714-32.412,177.558-55.159,268.932-72.276q61.117-11.229,122.927-18.389v-2.889q-62.138,6-123.818,16.171C114.577,477.048,23.4,498.023-65.178,529.263ZM330.258,427.172A3241.388,3241.388,0,0,0-32.848,443.59c-120.582,12.777-240.744,30.869-358.53,61.8l2.465,8.353c116.343-32.052,236.407-51.658,356.538-65.828A3239.736,3239.736,0,0,1,330.258,427.172ZM184.374,557.724a1299.357,1299.357,0,0,1,146.087-56.891v-7.552a1313.855,1313.855,0,0,0-151.12,53.974ZM-146.7,523.288l3.409,9.349c95-32.877,194.149-55.1,293.7-71.487q89.485-14.442,180.052-21.18v-2q-90.707,5.236-180.8,18.266C49.474,471.06-49.936,491.57-146.7,523.288ZM31.847,447.162c-115.081,13.445-229.639,32.5-341.655,64.191l2.757,8.7C-196.6,487.22-82.182,466.584,32.4,451.69a2800.753,2800.753,0,0,1,298.064-21.562v-.639A2805.662,2805.662,0,0,0,31.847,447.162Zm-260.1,70.157,3.07,9.026c103.071-33.046,210.246-54.562,317.7-70.2Q210.806,439.3,330.461,434.2v-1.277q-119.607,3.379-238.584,18.5C-16.138,465.556-123.5,485.417-228.251,517.319Z" transform="translate(966.037 -320.352)" fill="#2e2421"/>
      <g id="Group_30" data-name="Group 30" transform="translate(-63.536 93.436)">
        <path id="Path_32" data-name="Path 32" d="M909.879,607.8C551.312,498.69,99.786,429.473-355.749,422.547q-141.923-2.161-278.427,3.651V607.8Z" transform="translate(634.176 -421.972)" fill="#fff"/>
      </g>
      <path id="Path_33" data-name="Path 33" d="M-544.8,460.334V422.446l35.561-25.065,32.262,24.542v37.54Z" transform="translate(716.186 -368.583)" fill="#fff"/>
      <path id="Path_34" data-name="Path 34" d="M-472.64,438.049h-13v13.077h13Zm-82.488,6.863h2.594v22.5q12.25-.509,24.547-.878V428.644l35.561-25.065,32.262,24.542v37.54c1.774,0,3.557,0,5.333.013V430.469l7.126-3.194-41.8-33.7-21.8,16.418V399.026h-9.878l-4.731,4.442V421Zm10.979,3.236,4.8-2.941v8.351l-4.8,2.045Zm45.1-10.1h-13.011v13.077h13.011Zm1.987-17.443a4.7,4.7,0,0,0,4.7,4.687,4.69,4.69,0,0,0,4.681-4.687,4.689,4.689,0,0,0-4.681-4.7A4.7,4.7,0,0,0-497.059,420.607Z" transform="translate(699.37 -374.781)" fill="#2e2421"/>
      <path id="Path_35" data-name="Path 35" d="M-488.831,427.322c115.307,13.395,229.226,37.062,340.53,69.214C-50.81,525.049,45.575,559.22,137.446,601.712h35.992C70.164,554.226-37.112,518.289-146.211,488.984-258.6,459.239-373.248,438.12-488.831,427.322Zm44.642-.944a2430.063,2430.063,0,0,1,373.844,67.35c108.523,28.73,216.034,63.541,318.727,107.984h36.647C170.6,552.241,51.9,515.794-68.507,486.423A2433.837,2433.837,0,0,0-444.188,426.378Zm-138.5,4.282c94.069,15.776,186.282,41.049,275.793,73.222,76.3,27.676,151.381,59.9,222.781,97.83h34.562c-82.041-42.729-167.349-77-254.6-105.81C-395,466.242-488.19,443.647-582.692,430.66Zm47.973-1.94c104.543,14.488,207.47,38.994,307.713,71.209,86.7,28.172,172.23,61.478,253.624,101.783H61.932c-92.434-45.229-188.54-80.437-286.546-109.559C-326.064,462.4-429.834,440.519-534.719,428.72Zm792.574,55.761A4338.747,4338.747,0,0,0-233.22,427.39a4335.621,4335.621,0,0,1,489.945,63.321c147.745,28.375,294.97,63.037,437.23,111H732.42C577.5,549.013,418.223,513.19,257.855,484.481ZM-399.3,425.842A2810.018,2810.018,0,0,1,7.638,491.588c119.57,28.785,238.224,64.03,351.856,110.124h37.217C271.045,550.6,140.937,513.852,9.246,484.534A2813.973,2813.973,0,0,0-399.3,425.842Zm100.23.276a3760.8,3760.8,0,0,1,467.613,63.641c140.052,28.653,279.462,63.87,413.729,111.953H620.4c-146.76-52.959-298.048-89.445-450.593-118.461A3765.708,3765.708,0,0,0-299.066,426.118Zm-53.169-.4A3252.738,3252.738,0,0,1,86.611,490.18c130.3,28.777,259.814,64.164,384.184,111.532h37.7C371.848,549.376,230.653,512.6,88.028,483.4A3256.207,3256.207,0,0,0-352.236,425.713Z" transform="translate(654.482 -322.444)" fill="#2e2421"/>
      <path id="Path_36" data-name="Path 36" d="M-329.543,421.043c-103.731-1.577-205.488.113-304.633,4.826v2.778q136.269-5.713,278.427-3.651c455.535,6.926,907.061,76.142,1265.628,185.257h43.578C591.454,498.881,131.37,428.056-329.543,421.043Z" transform="translate(570.64 -330.985)" fill="#2e2421"/>
      <g id="Group_31" data-name="Group 31" transform="translate(0.18 118.992)">
        <path id="Path_37" data-name="Path 37" d="M-301.209,557.928c12.443-.555,14.932-1.2,29.684-1.577-3.454-2.224-24.513-15.808-58.363-32.625a516.047,516.047,0,0,0-61.935-25.675c-11.97-3.99-24.747-7.675-37.987-10.816-6.6-1.546-13.516-3.046-19.779-4.432a10.46,10.46,0,0,1-1.761-.5c4.056-4.492,5.522-11.789-.339-15.889-11.266-9.654-52.935-16.7-65.492-18.886-25.128-4.166-78.211-12.564-78.193-12.559a238.952,238.952,0,0,0,24.944,5.473c19.535,3.84,42.569,8.059,66.667,13.3,21.059,4.923,57.893,12.593,47.555,23.433-.631,1.43-4.831,5.181.021,10.477,4.91,4.106,9.455,4.552,12.987,5.72,6.4,1.653,13.936,3.3,19.969,5.036,11.941,3.5,24.695,7.423,35.319,11.618a448.466,448.466,0,0,1,54.833,26.593C-318.915,544.791-309.891,552.172-301.209,557.928Z" transform="translate(633.648 -426.358)" fill="#2e2421"/>
        <path id="Path_38" data-name="Path 38" d="M-406.223,585.954c8.159-.6,14.948-1.3,24.592-1.7-2.061-2.405-19.916-32.5-73.361-62.934-14.933-8.5-34.554-12.619-36.323-16.46-1.472-3.207,5.9-8.033-2.568-19.4-7.444-9.994-31.505-16.32-39.5-18.676-16.013-4.492-25.549-6.921-37.546-10.177-26.821-7.276-32.8-14.728-32.8-14.728-5.239-5.1-6.2-10.183-6.2-10.183s-.518,4.369,5.252,10.827c4.763,5.323,14.507,11.263,33.529,16.607,12.4,4.143,30.007,8.947,45.352,14.359,7.851,2.773,14.378,5.5,19.543,8.963,8.311,5.562,12.233,12.307,8.138,18.355-1.4,2.082-3.175,5.273-1.272,9.292,2.844,4.429,7.441,4.913,9.641,6.172C-445.419,535.889-411.377,579.737-406.223,585.954Z" transform="translate(609.935 -431.695)" fill="#2e2421"/>
        <path id="Path_39" data-name="Path 39" d="M-517.3,471.815c-2.729.823-8.493-1.235-14.344-3.848s-9.568-4.789-6.839-5.615,9.77.426,15.616,3.039S-514.57,470.992-517.3,471.815Z" transform="translate(724.81 -382.178)" fill="#2e2421"/>
        <path id="Path_40" data-name="Path 40" d="M-490.852,482.3c-2.581.883-7.462-1.009-12.33-3.454s-7.9-4.519-5.315-5.4,8.724.179,13.6,2.623S-488.276,481.422-490.852,482.3Z" transform="translate(773.591 -364.191)" fill="#2e2421"/>
        <path id="Path_41" data-name="Path 41" d="M-554.167,451.289c-1.9.7-6.04-.518-10.251-2.134s-6.913-3.007-5.015-3.7,6.913-.1,11.129,1.511S-552.264,450.6-554.167,451.289Z" transform="translate(674.887 -409.753)" fill="#2e2421"/>
        <path id="Path_42" data-name="Path 42" d="M-506.327,484.022c-3.564,1.057-11.126-2.121-18.794-6.093s-12.551-7.247-8.987-8.3,12.79,1.007,20.455,4.981S-502.766,482.96-506.327,484.022Z" transform="translate(731.486 -370.376)" fill="#2e2421"/>
      </g>
    </g>
  </g>
</svg>
